v0,0,1,2,3,4,5,6,7,8,9
0,0,0,0,0,0,0,0,0,0,0
1,1,1,2,3,5,8,13,21,34,55
2,2,2,4,6,10,16,26,42,68,110
3,3,3,6,9,15,24,39,63,102,165
4,4,4,8,12,20,32,52,84,136,220
5,5,5,10,15,25,40,65,105,170,275
6,6,6,12,18,30,48,78,126,204,330
7,7,7,14,21,35,56,91,147,238,385
8,8,8,16,24,40,64,104,168,272,440
9,9,9,18,27,45,72,117,189,306,495
